Sergio,Casmuz,true,70,60,60,70,60,75,80,80
Gaston,Sarubbi,true,30,40,30,70,70,75,60,60
Matias,Direse,true,50,70,70,75,75,70,85,70
Carlos,Gomez,true,65,75,70,80,70,65,75,80
Lucia,Martinez,true,40,50,55,60,65,70,75,80