Sergio,Casmuz,true,70,60,60,70,60,75,80,80
Gaston,Sarubbi,true,30,40,30,70,70,75,60,60
Matias,Direse,true,50,70,70,75,75,70,85,70
Carlos,Gomez,true,65,75,70,80,70,65,75,80
Lucia,Martinez,true,40,50,55,60,65,70,75,80
Juan,Perez,true,55,60,65,70,75,80,85,90
Laura,Rodriguez,true,45,50,55,60,65,70,75,80
Mario,Fernandez,true,60,65,70,75,80,85,90,95
Ana,Garcia,true,50,55,60,65,70,75,80,85
Diego,Lopez,true,70,75,80,85,90,95,100,105
Andrea,Diaz,true,55,60,65,70,75,80,85,90
Pablo,Ramirez,true,45,50,55,60,65,70,75,80
Marta,Sanchez,true,35,40,45,50,55,60,65,70
Javier,Martin,true,65,70,75,80,85,90,95,100
Paula,Gomez,true,40,45,50,55,60,65,70,75
16,Luis,Fernandez,true,75,80,85,90,95,100,105,110
17,Sofia,Rodriguez,true,55,60,65,70,75,80,85,90
18,Elena,Lopez,true,50,55,60,65,70,75,80,85
19,Manuel,Gutierrez,true,60,65,70,75,80,85,90,95
20,Valeria,Martinez,true,45,50,55,60,65,70,75,80
21,Jorge,Perez,true,70,75,80,85,90,95,100,105
22,Maria,Garcia,true,55,60,65,70,75,80,85,90
23,Antonio,Rodriguez,true,80,85,90,95,100,105,110,115
24,Silvia,Fernandez,true,50,55,60,65,70,75,80,85
25,Nicolas,Lopez,true,65,70,75,80,85,90,95,100
26,Carolina,Diaz,true,40,45,50,55,60,65,70,75
27,Roberto,Martin,true,75,80,85,90,95,100,105,110
28,Isabel,Sanchez,true,60,65,70,75,80,85,90,95
29,Daniel,Gomez,true,55,60,65,70,75,80,85,90
30,Julia,Fernandez,true,70,75,80,85,90,95,100,105
31,Ricardo,Perez,true,45,50,55,60,65,70,75,80
32,Luciano,Rodriguez,true,80,85,90,95,100,105,110,115
33,Adriana,Martinez,true,50,55,60,65,70,75,80,85
