id,nombre,apellido,genero,saque,fondo,volea,movilidad,resistencia,velocidad,fuerza,reaccion
1,Sergio,Casmuz,true,70,60,60,70,60,75,80,80
2,Gaston,Sarubbi,true,30,40,30,70,70,75,60,60
3,Matias,Direse,true,50,70,70,75,75,70,85,70
4,Carlos,Gomez,true,65,75,70,80,70,65,75,80
5,Lucia,Martinez,false,40,50,55,60,65,70,75,80