Sergio,Casmuz,true,70,60,60,70,60,75,80,80
Carolina,Diaz,true,40,45,50,55,60,65,70,75
Andrea,Diaz,true,55,60,65,70,75,80,85,90
Matias,Direse,true,50,70,70,75,75,70,85,70
Mario,Fernandez,true,60,65,70,75,80,85,90,95
Luis,Fernandez,true,75,80,85,90,95,100,10,10
Julia,Fernandez,false,70,75,80,85,90,95,100,10
Silvia,Fernandez,true,50,55,60,65,70,75,80,85
Ana,Garcia,false,50,55,60,65,70,75,80,85
Carlos,Gomez,true,65,75,70,80,70,65,75,80
Daniel,Gomez,true,55,60,65,70,75,80,85,90
Paula,Gomez,false,40,45,50,55,60,65,70,75
Manuel,Gutierrez,true,60,65,70,75,80,85,90,95
Nicolas,Lopez,true,65,70,75,80,85,90,95,100
Elena,Lopez,false,50,55,60,65,70,75,80,85
Diego,Lopez,true,70,75,80,85,90,95,100,5
Roberto,Martin,true,75,80,85,90,95,100,10,10
Javier,Martin,true,65,70,75,80,85,90,95,100
Adriana,Martinez,false,50,55,60,65,70,75,80,85
Valeria,Martinez,false,45,50,55,60,65,70,75,80
Lucia,Martinez,false,40,50,55,60,65,70,75,80
Juan,Perez,true,55,60,65,70,75,80,85,90
Ricardo,Perez,true,45,50,55,60,65,70,75,80
Jorge,Perez,true,70,75,80,85,90,95,100,105
Pablo,Ramirez,true,45,50,55,60,65,70,75,80
Laura,Rodriguez,false,45,50,55,60,65,70,75,80
Luciano,Rodriguez,true,80,85,90,95,100,50,10,15
Sofia,Rodriguez,false,55,60,65,70,75,80,85,90
Antonio,Rodriguez,true,80,85,90,95,100,10,10,15
Marta,Sanchez,false,35,40,45,50,55,60,65,70
Isabel,Sanchez,false,60,65,70,75,80,85,90,95
Agustin,Moreno,true,70,70,70,70,70,70,70,70
Valentina,Lopez,false,75,75,75,75,75,75,75,75
Mateo,Rodriguez,true,80,80,80,80,80,80,80,80
Isabella,Martínez,false,95,95,95,95,95,95,95,95
Diego,Maradona,true,80,90,85,95,80,85,90,85
Eva, Peron,false,70,80,75,85,70,75,80,75
Lionel, Messi,true,90,95,90,95,90,95,95,90
Carlos, Gardel,true,85,90,85,90,85,90,90,85
Roger, Federer,true,90,92,88,85,90,92,89,91
Rafael, Nadal,true,88,90,85,87,91,89,86,90
Novak, Djokovic,true,87,89,86,90,88,87,90,91
Serena, Williams,false,85,87,90,88,85,89,86,88
Steffi, Graf,false,89,86,90,87,88,85,90,87
Andre, Agassi,true,88,86,89,90,85,88,87,86
Pete, Sampras,true,90,88,85,87,89,90,88,86
Martina, Navratilova,false,86,88,87,90,86,89,88,85
Chris, Evert,false,87,85,88,86,90,87,86,88
Bjorn, Borg,true,89,87,88,85,90,87,89,85
Rod, Laver,true,86,90,85,87,88,89,90,86
Billie, Jean King,false,88,87,89,85,86,90,87,88
Boris, Becker,true,89,90,88,86,87,90,89,85
John, McEnroe,true,90,88,85,89,90,86,87,89
Monica, Seles,false,88,85,89,87,86,90,85,88
Jimmy, Connors,true,89,87,88,85,89,86,87,90
Maria, Sharapova,false,87,89,88,90,85,86,90,87
Ivan, Lendl,true,90,88,89,87,86,90,85,88
Venus, Williams,false,86,87,90,89,85,88,87,86
Mauricio,Macri,true,85,88,87,85,86,88,87,85
Cristina,Fernández,false,87,85,86,88,87,85,86,88
Barack,Obama,true,88,86,87,85,86,88,87,85
Angela,Merkel,false,86,88,87,85,88,87,86,85
Donald,Trump,true,87,85,88,87,85,86,88,87
Emmanuel,Macron,true,88,87,85,86,88,87,85,86
Justin,Trudeau,true,85,88,87,86,88,87,85,86
Narendra,Modi,true,86,88,87,85,88,87,86,85
Vladimir,Putin,true,87,85,86,88,87,85,86,88
Jair,Bolsonaro,true,85,86,88,87,85,86,88,87
Boris,Johnson,true,86,88,87,85,86,88,87,85
Nicolás,Maduro,true,88,87,85,86,88,87,85,86
Xi,Jinping,true,87,85,86,88,87,85,86,88
Shinzo,Abe,true,85,86,88,87,85,86,88,87
Recep,Tayyip,true,86,88,87,85,88,87,86,85
Benjamin,Netanyahu,true,88,87,85,86,88,87,85,86
Jacinda,Ardern,false,85,86,88,87,85,86,88,87
Alberto,Fernández,true,86,88,87,85,88,87,86,85
Michelle,Bachelet,false,88,87,85,86,88,87,85,86
Angela,Markel,false,85,86,88,87,85,86,88,87
Carlos,Gardel,true,85,88,87,85,86,88,87,85
Luis,Alberto Spinetta,true,87,85,86,88,87,85,86,88
Mercedes,Sosa,false,88,86,87,85,86,88,87,85
Charly,García,true,86,88,87,85,88,87,86,85
Gustavo,Cerati,true,87,85,88,87,85,86,88,87
Sandro,true,88,87,85,86,88,87,85,86
Fito,Páez,true,85,88,87,86,88,87,85,86
Indio,Solari,true,86,88,87,85,88,87,86,85
Roberto,Goyeneche,true,87,85,86,88,87,85,86,88
Tita,Merello,false,85,86,88,87,85,86,88,87
Sui,Géneris,true,86,88,87,85,86,88,87,85
Abel,Pintos,true,88,87,85,86,88,87,85,86
Alberto,Piazzolla,true,87,85,86,88,87,85,86,88
Moris,Lala,true,85,86,88,87,85,86,88,87
Valeria,Lynch,false,86,88,87,85,88,87,86,85
León,Gieco,true,88,87,85,86,88,87,85,86
Joaquín,Sabina,true,85,86,88,87,85,86,88,87
Cacho,Castaña,true,86,88,87,85,86,88,87,85
Julian,Pimpinela,true,88,87,85,86,88,87,85,86
Pablo,Milanes,true,87,85,86,88,87,85,86
